…
file <- system.file("light_curve.txt", package = "li6400xt")

mydata <- read_licor(file)
print(mydata)
#> # A tibble: 525 x 59
#>    file  time                Obs   FTime  EBal Photo   Cond     Ci  FCnt  DCnt
#>  * <chr> <dttm>              <chr> <dbl> <dbl> <dbl>  <dbl>  <dbl> <dbl> <dbl>
#>  1 ligh… 2021-06-21 05:49:07 1      29.5     0 -6.77 0.0791  489       0     0
#>  2 ligh… 2021-06-21 05:49:18 2      40       0 -1.02 0.0806  369       0     0
#>  3 ligh… 2021-06-21 05:49:28 3      50.5     0 16.2  0.0828   34.6     0     0
#>  4 ligh… 2021-06-21 05:49:39 4      61       0 32.8  0.0845 -261       0     0
#>  5 ligh… 2021-06-21 05:49:49 5      71.5     0 16.6  0.0871   66.7     0     0
#>  6 ligh… 2021-06-21 05:50:00 6      82       0  9.84 0.0896  201       0     0
#>  7 ligh… 2021-06-21 05:50:10 7      92.5     0 15.5  0.0936  114       0     0
#>  8 ligh… 2021-06-21 05:50:21 8     103       0 16.6  0.096   109       0     0
#>  9 ligh… 2021-06-21 05:50:31 9     114.      0 10.5  0.098   220       0     0
#> 10 ligh… 2021-06-21 05:50:42 10    124       0  8.18 0.101   265       0     0
#> # … with 515 more rows, and 49 more variables: Fs <dbl>, Adark <dbl>,
#> #   RedAbs <dbl>, BlueAbs <dbl>, `%Blue` <dbl>, LeafAbs <dbl>, PhiCO2 <dbl>,
#> #   `ParIn@Fs` <dbl>, `PS2/1` <dbl>, Trmmol <dbl>, VpdL <dbl>, CTleaf <dbl>,
#> #   Area <dbl>, BLC_1 <dbl>, StmRat <dbl>, BLCond <dbl>, Tair <dbl>,
#> #   Tleaf <dbl>, TBlk <dbl>, CO2R <dbl>, CO2S <dbl>, H2OR <dbl>, H2OS <dbl>,
#> #   RH_R <dbl>, RH_S <dbl>, Flow <dbl>, PARi <dbl>, PARo <dbl>, Press <dbl>,
#> #   CsMch <dbl>, HsMch <dbl>, StableF <dbl>, BLCslope <dbl>, BLCoffst <dbl>,
#> #   f_parin <dbl>, f_parout <dbl>, alphaK <dbl>, Status <dbl>, Fo <dbl>,
#> #   Fm <dbl>, `Fo'` <dbl>, `Fm'` <dbl>, `Fv/Fm` <dbl>, `Fv'/Fm'` <dbl>,
…
<img src="man/figures/README-loading-2.png" width="100%" />

## miscellaneous functions

File remark and operational change logs are available as `attributes`.

``` r
# check remark noted on file creation
attributes(mydata)$remark
#> [1] "15mm"

# check operational change logs
attributes(mydata)$control
#> # A tibble: 77 x 3
#>    time                log                                           file       
#>    <dttm>              <chr>                                         <chr>      
#>  1 2021-06-21 05:48:55 Launched AutoProg /User/Configs/AutoProgs/Au… light_curv…
#>  2 2021-06-21 05:48:57 Log AvgTime changed to 15 s                   light_curv…
#>  3 2021-06-21 05:48:57 LCF Lamp: ParIn -> 300 uml, with blue = 10 p… light_curv…
#>  4 2021-06-21 05:48:57 CO2 Mixer: CO2S -> 400 uml                    light_curv…
#>  5 2021-06-21 05:48:57 Coolers: Tleaf -> 22.00 C                     light_curv…
#>  6 2021-06-21 05:48:57 Flow: Fixed -> 300 umol/s                     light_curv…
#>  7 2021-06-21 05:59:01 Fs=234 Msr=1 Mod=0.25 Filter=5 Gain=10        light_curv…
#>  8 2021-06-21 05:59:01 RF#1 8672 um, Fmax=489 Int=9 Mod=20 Filter=50 light_curv…
#>  9 2021-06-21 05:59:03 Fm'=489                                       light_curv…
#> 10 2021-06-21 05:59:11 Fo'=119                                       light_curv…
#> # … with 67 more rows
```
…
